{
    "specifications":[
        {
            "icon":"https://image.adjemin.com/eoeooe.png",
            "label_name": "Visiter le Site Web",
            "label_value": "https://adjemincloud.com"
        },
        {
            "icon":"https://image.adjemin.com/eoeooe.png",
            "label_name": "Téléphone",
            "label_value": "+22546888385"
        }
    ],
    "specialties": [

        {
            "image":"https://image.adjemin.com/eoeooe.png",
            "name": "Excursions et Visites",
            "slug": "excursions_et_visites",
            "id":1
        },
        {
            "image":"https://image.adjemin.com/eoeooe.png",
            "name": "Visite Guides",
            "slug": "visite_guidés",
            "id":2
        },
        {
            "image":"https://image.adjemin.com/eoeooe.png",
            "name": "Randonnées",
            "slug": "randonnees",
            "id":3
        }

    ],
    "pictures":[
        "https://image.adjemin.com/eoeooe.png",
        "https://image.adjemin.com/eoeooe.png",
        "https://image.adjemin.com/eoeooe.png",
        "https://image.adjemin.com/eoeooe.png",
        "https://image.adjemin.com/eoeooe.png",
        "https://image.adjemin.com/eoeooe.png"
        
    ]
}