{
    "specifications":[
        {
            "icon":"",
            "name": "Piscine"
        },
        {
            "icon":"https://image.adjemin.com/eoeooe.png",
            "name": "Piscine"
        },
        {
            "icon":"https://image.adjemin.com/eoeooe.png",
            "name": "Piscine"
        },
        {
            "icon":"https://image.adjemin.com/eoeooe.png",
            "name": "Piscine"
        },
        {
            "icon":"https://image.adjemin.com/eoeooe.png",
            "name": "Piscine"
        },
        {
            "icon":"https://image.adjemin.com/eoeooe.png",
            "name": "Piscine"
        },
        {
            "icon":"https://image.adjemin.com/eoeooe.png",
            "name": "Piscine"
        }
    ],

    "pictures":[
        "https://image.adjemin.com/eoeooe.png",
        "https://image.adjemin.com/eoeooe.png",
        "https://image.adjemin.com/eoeooe.png",
        "https://image.adjemin.com/eoeooe.png",
        "https://image.adjemin.com/eoeooe.png",
        "https://image.adjemin.com/eoeooe.png"
        
    ]
}